Commande,Résultat
`Ctrl + Entrée`,Envoie le code sélectionné dans la console
`Ctrl + Z`,Annule la dernière action
`Ctrl + S`,Enregistre le script
`Ctrl + Maj + K`,Enregistre et compile (Render) le rapport
"`Ctrl + X`, `Ctrl + C`, `Ctrl + V`","Coupe, copie, colle le texte sélectionné"
`Ctrl + Maj + M` ,Ecrit |>
`Ctrl + Maj + C` ,Commente ou dé-commente la sélection en cours
`F1`,Présente la page d'aide de la fonction sur laquelle le curseur est positionné
`Tabulation`,Force la complétion (nom des fonctions ou chemin relatif)
Double clic sur un mot ,Sélectionne le mot en question
"`""` sur un mot sélectionné",Met le mot sélectionné entre guillemets
Flèches haut et bas (dans la console),Récupère les commandes précédemment lancées dans la console
`Echap` (dans la console),Arrête le processus en cours ou efface la ligne de commande écrite dans la console
`Ctrl + Maj + chiffre`,"Agrandit/redimensionne la fenêtre du script (`1`), de la console (`2`), etc."
`Ctrl + Maj + F10`,Redémarre la session R (efface l'environnement et enlève tous les packages chargés)
`Alt + Maj + K`,Affiche les raccourcis de Rstudio
