site	cult	syst	ferti	parc	mois	plant	sn	c.pourmil	n.pourmil	c.s.n	bm	nh4	no3	n.mx	gluco	phospha	urease	co2	co2.s.c
Bema	rs	labour	F0	a	mars	soja	17609	26,99	1,69	16,00	142,33	0,33	31,80	32,13	42,29	294,45	31,63	46,80	1,73
Bema	rs	labour	F0	b	mars	soja	17610	24,49	1,52	16,00	130,67	0,77	34,43	35,20	41,03	321,48	23,84	44,60	1,82
Bema	rs	labour	F0	c	mars	soja	17611	28,88	1,92	15,00	175,33	0,93	36,20	37,13	41,59	338,51	34,84	50,80	1,76
Bema	rs	labour	F1	a	mars	soja	17612	29,25	1,82	16,00	168,33	0,77	38,63	39,40	58,99	388,12	36,87	55,20	1,89
Bema	rs	labour	F1	b	mars	soja	17613	27,06	1,62	17,00	162,00	0,37	32,13	32,50	39,63	348,73	25,32	44,80	1,66
Bema	rs	labour	F1	c	mars	soja	17614	35,15	2,29	15,00	201,33	1,63	46,93	48,57	65,01	402,52	40,11	64,80	1,84
Bema	rs	labour	F2	a	mars	soja	17615	34,40	2,30	15,00	220,67	2,90	74,23	77,13	88,70	411,54	52,20	153,80	4,47
Bema	rs	labour	F2	b	mars	soja	17616	35,90	2,45	15,00	234,33	0,23	46,93	47,17	93,70	457,70	42,11	127,10	3,54
Bema	rs	labour	F2	c	mars	soja	17617	41,34	3,17	13,00	378,33	1,33	102,33	103,67	90,65	505,97	43,26	323,00	7,81
Bema	rs	sdvres	F0	a	mars	soja	17618	46,36	3,51	13,00	393,33	1,23	82,43	83,67	116,27	524,32	62,04	86,20	1,86
Bema	rs	sdvres	F0	b	mars	soja	17619	46,23	3,55	13,00	493,67	1,83	91,07	92,90	119,01	523,77	87,12	113,60	2,46
Bema	rs	sdvres	F0	c	mars	soja	17620	51,86	3,73	14,00	460,00	3,57	82,87	86,43	123,33	495,36	82,56	124,60	2,40
Bema	rs	sdvres	F1	a	mars	soja	17621	55,53	3,51	16,00	494,33	16,13	143,30	159,43	153,62	468,72	64,04	334,80	6,03
Bema	rs	sdvres	F1	b	mars	soja	17622	43,05	3,55	12,00	466,67	5,37	116,93	122,30	118,52	416,23	83,13	139,40	3,24
Bema	rs	sdvres	F1	c	mars	soja	17623	46,69	3,73	13,00	402,67	2,63	80,90	83,53	149,28	420,00	73,94	138,80	2,97
Bema	rs	sdvres	F2	a	mars	soja	17624	51,68	4,05	13,00	519,67	4,40	179,37	183,77	157,68	422,41	70,27	379,30	7,34
Bema	rs	sdvres	F2	b	mars	soja	17625	53,61	4,13	13,00	436,33	1,37	153,40	154,77	169,45	527,73	66,16	370,30	6,91
Bema	rs	sdvres	F2	c	mars	soja	17626	42,92	3,18	13,00	428,67	0,37	119,43	119,80	155,87	558,43	71,17	402,30	9,37
Bema	rs	labour	F0	a	mars	riz	17627	29,45	1,91	15,00	137,67	1,33	29,57	30,90	38,41	322,44	?	44,20	1,50
Bema	rs	labour	F0	b	mars	riz	17628	24,14	1,42	17,00	152,33	1,17	32,37	33,53	40,23	367,85	?	44,10	1,83
Bema	rs	labour	F0	c	mars	riz	17629	28,57	1,70	17,00	141,00	0,63	41,03	41,67	47,99	281,78	?	60,80	2,13
Bema	rs	labour	F1	a	mars	riz	17630	29,50	1,96	15,00	198,67	0,13	34,03	34,17	63,16	301,73	?	57,90	1,96
Bema	rs	labour	F1	b	mars	riz	17631	22,40	1,43	16,00	179,67	0,57	33,53	34,10	50,21	283,47	?	53,90	2,41
Bema	rs	labour	F1	c	mars	riz	17632	24,99	1,72	15,00	190,00	1,37	48,50	49,87	64,92	341,69	?	75,10	3,01
Bema	rs	labour	F2	a	mars	riz	17633	23,57	1,53	15,00	230,67	0,10	47,03	47,13	74,96	347,93	?	111,40	4,73
Bema	rs	labour	F2	b	mars	riz	17634	24,44	1,71	14,00	252,33	0,27	37,87	38,13	62,27	365,08	?	94,60	3,87
Bema	rs	labour	F2	c	mars	riz	17635	29,75	2,10	14,00	266,00	0,43	50,57	51,00	53,00	392,98	?	402,30	13,52
Bema	rs	sdvres	F0	a	mars	riz	17636	29,10	1,98	15,00	354,67	1,53	73,00	74,53	73,88	462,60	?	116,20	3,99
Bema	rs	sdvres	F0	b	mars	riz	17637	36,45	2,66	14,00	515,33	5,77	98,47	104,23	83,43	461,24	?	135,70	3,72
Bema	rs	sdvres	F0	c	mars	riz	17638	24,47	1,62	15,00	317,00	1,30	63,90	65,20	60,90	431,39	?	106,20	4,34
Bema	rs	sdvres	F1	a	mars	riz	17639	34,76	2,60	13,00	358,33	2,83	77,30	80,13	71,36	449,02	?	112,60	3,24
Bema	rs	sdvres	F1	b	mars	riz	17640	31,49	2,10	15,00	554,67	5,53	115,57	121,10	110,32	488,19	?	164,50	5,22
Bema	rs	sdvres	F1	c	mars	riz	17641	25,97	1,76	15,00	402,33	9,40	67,53	76,93	104,39	481,35	?	118,90	4,58
Bema	rs	sdvres	F2	a	mars	riz	17642	29,77	2,03	15,00	337,00	3,03	74,60	77,63	112,68	481,91	?	114,40	3,84
Bema	rs	sdvres	F2	b	mars	riz	17643	38,25	2,85	13,00	418,00	4,97	101,67	106,63	136,53	481,47	?	133,00	3,48
Bema	rs	sdvres	F2	c	mars	riz	17644	31,27	2,39	13,00	494,33	1,50	85,10	86,60	120,18	475,69	?	330,70	10,58
Bema	mpt	labour	F0	a	mars	pdt	17645	25,35	1,57	16,00	202,70	1,10	29,00	30,13	31,50	260,72	?	36,30	1,43
Bema	mpt	labour	F0	b	mars	pdt	17646	25,75	1,66	16,00	156,70	1,70	29,00	30,70	33,59	202,68	?	29,40	1,14
Bema	mpt	labour	F0	c	mars	pdt	17647	23,82	1,73	14,00	187,30	2,40	35,60	38,07	47,10	316,07	?	38,30	1,61
Bema	mpt	labour	F1	a	mars	pdt	17648	30,61	2,01	15,00	232,00	1,20	31,80	32,97	48,29	340,22	?	37,10	1,21
Bema	mpt	labour	F1	b	mars	pdt	17649	27,54	1,78	15,00	191,00	1,30	27,20	28,53	40,84	255,54	?	45,30	1,64
Bema	mpt	labour	F1	c	mars	pdt	17650	28,83	2,24	13,00	260,30	4,60	59,20	63,80	39,61	280,07	?	55,50	1,93
Bema	mpt	labour	F2	a	mars	pdt	17651	32,48	2,18	15,00	277,30	5,80	83,80	89,57	69,65	344,03	?	71,90	2,21
Bema	mpt	labour	F2	b	mars	pdt	17652	30,31	2,13	14,00	302,30	5,40	83,90	89,30	62,83	338,24	?	78,70	2,60
Bema	mpt	labour	F2	c	mars	pdt	17653	30,63	2,14	14,00	389,70	5,00	124,20	129,23	74,48	382,61	?	117,60	3,84
Bema	mpt	sdvres	F0	a	mars	pdt	17654	43,46	3,45	13,00	385,00	5,80	127,60	133,40	96,00	360,80	?	74,90	1,72
Bema	mpt	sdvres	F0	b	mars	pdt	17655	37,59	2,80	13,00	459,00	9,50	150,00	159,43	88,80	422,28	?	165,30	4,40
Bema	mpt	sdvres	F0	c	mars	pdt	17656	35,65	2,58	14,00	305,00	5,50	80,50	85,97	53,97	357,07	?	59,90	1,68
Bema	mpt	sdvres	F1	a	mars	pdt	17657	41,17	2,99	14,00	411,00	76,50	202,90	279,37	87,70	400,62	?	105,10	2,55
Bema	mpt	sdvres	F1	b	mars	pdt	17658	53,81	4,17	13,00	343,00	6,00	105,30	111,37	66,63	356,49	?	83,30	1,55
Bema	mpt	sdvres	F1	c	mars	pdt	17659	44,43	3,53	13,00	304,30	5,40	88,50	93,87	46,46	367,11	?	70,50	1,59
Bema	mpt	sdvres	F2	a	mars	pdt	17660	37,88	2,87	13,00	414,00	5,30	105,50	110,80	70,01	371,94	?	88,30	2,33
Bema	mpt	sdvres	F2	b	mars	pdt	17661	39,59	3,12	13,00	446,00	6,50	204,60	211,13	120,05	423,29	?	160,40	4,05
Bema	mpt	sdvres	F2	c	mars	pdt	17662	43,16	3,25	13,00	337,30	6,10	155,50	161,57	87,87	426,39	?	137,00	3,17
Andra	ms	labour	F1	a	mars	soja	17663	34,41	2,72	13,00	286,00	5,37	106,47	111,83	66,35	417,00	56,32	98,50	2,86
Andra	ms	labour	F1	b	mars	mais	17664	41,01	3,11	13,00	206,67	5,87	117,10	122,97	56,30	339,49	42,43	73,20	1,78
Andra	ms	labour	F1	c	mars	mais	17665	38,78	3,32	12,00	80,67	239,20	303,37	542,57	54,22	391,36	187,82	86,00	2,22
Andra	ms	labour	F2	a	mars	soja	17666	34,16	2,63	13,00	223,00	6,23	185,37	191,60	80,39	414,20	50,85	258,30	7,56
Andra	ms	labour	F2	b	mars	mais	17667	45,76	3,34	14,00	238,00	5,83	154,80	160,63	71,97	436,25	40,50	104,10	2,27
Andra	ms	labour	F2	c	mars	mais	17668	37,46	3,94	10,00	231,33	6,03	137,70	143,73	79,77	436,62	40,76	98,30	2,62
Andra	ms	sdvres	F1	a	mars	soja	17669	53,69	4,27	13,00	431,33	18,57	240,33	258,90	172,38	490,61	39,99	424,90	7,91
Andra	ms	sdvres	F1	b	mars	soja	17670	44,63	3,42	13,00	383,67	6,13	224,13	230,27	145,08	503,16	70,72	164,70	3,69
Andra	ms	sdvres	F1	c	mars	soja	17671	53,68	4,17	13,00	405,00	37,40	250,37	287,77	183,22	474,09	40,18	465,30	8,67
Andra	ms	sdvres	F2	a	mars	soja	17672	42,70	3,54	12,00	371,00	6,07	265,73	271,80	160,61	559,85	42,88	347,40	8,14
Andra	ms	sdvres	F2	b	mars	soja	17673	41,37	3,36	12,00	493,00	6,53	250,17	256,70	184,43	537,71	48,60	420,00	10,15
Andra	ms	sdvres	F2	c	mars	soja	17674	52,36	4,09	13,00	552,00	9,30	313,63	322,93	186,29	451,55	61,98	482,70	9,22
Andra	hs	sdvkik	F1	a	mars	soja	17675	40,68	3,33	12,00	384,67	5,97	189,13	195,10	99,23	500,74	56,25	149,90	3,68
Andra	hs	sdvkik	F1	b	mars	soja	17676	49,96	4,29	12,00	529,00	7,87	276,73	284,60	179,22	400,98	49,05	366,20	7,33
Andra	hs	sdvkik	F1	c	mars	soja	17677	44,52	3,65	12,00	383,33	7,40	273,40	280,80	103,93	415,92	50,47	195,70	4,40
Andra	hs	sdvkik	F2	a	mars	soja	17678	49,74	4,11	12,00	600,67	7,30	269,13	276,43	182,64	438,43	55,48	503,90	10,13
Andra	hs	sdvkik	F2	b	mars	soja	17679	55,58	4,76	12,00	503,33	15,07	272,40	287,47	200,24	476,39	57,67	474,90	8,54
Andra	hs	sdvkik	F2	c	mars	soja	17680	47,15	3,86	12,00	348,33	9,00	301,67	310,67	130,70	474,04	40,76	401,00	8,50
Andra	mm	sdvdes	F1	a	mars	mais	17681	43,60	3,65	12,00	146,00	7,63	211,20	218,83	132,68	467,29	47,57	164,30	3,77
Andra	mm	sdvdes	F1	b	mars	mais	17682	49,76	4,11	12,00	100,00	6,97	193,67	200,63	96,37	445,67	179,79	124,60	2,50
Andra	mm	sdvdes	F1	c	mars	mais	17683	48,70	4,04	12,00	230,67	9,90	216,77	226,67	130,93	425,37	63,07	174,50	3,58
Andra	mm	sdvdes	F2	a	mars	mais	17684	52,87	4,34	12,00	312,67	7,97	211,73	219,70	153,34	460,50	91,11	217,40	4,11
Andra	mm	sdvdes	F2	b	mars	mais	17685	52,65	4,24	12,00	294,00	8,67	203,33	212,00	126,97	446,88	95,35	234,60	4,46
Andra	mm	sdvdes	F2	c	mars	mais	17686	45,37	3,73	12,00	330,00	7,17	233,23	240,40	148,29	471,84	74,71	241,20	5,32
Bema	jac	jacaris	rien	a	juin	aris	20918	4,59	0,53	9,00	?	?	?	?	?	?	53,49	199,00	43,36
Bema	jac	jacaris	rien	b	juin	aris	20919	30,94	2,30	13,00	?	?	?	?	?	?	46,22	246,90	7,98
Bema	jac	jacaris	rien	c	juin	aris	20920	42,01	3,32	13,00	?	?	?	?	?	?	105,13	293,40	6,98
Andra	jac	jacaris	rien	a	juin	aris	20921	41,55	3,09	13,00	?	?	?	?	?	?	67,89	254,30	6,12
Andra	jac	jacaris	rien	b	juin	aris	20922	77,91	5,78	13,00	?	?	?	?	?	?	77,03	283,60	3,64
Andra	jac	jacaris	rien	c	juin	aris	20923	73,78	6,15	12,00	?	?	?	?	?	?	106,32	314,40	4,26
